{
	"u_caller_id": "MuleSoft_integration_user",
	"u_impact": "4",
	"u_urgency": "4",
	"u_short_description": "fghgf",
	"u_description": "khj",
	"u_opened_by": "MuleSoft_integration_user",
	"u_assignment_group": "GLO-APPL-MULESOFT",
	"u_correlation_id": "2017-12-31 23:59:59",
	"u_contact_type": "Auto-Non-Monitoring",
	"u_action_type": "insert",
	"u_incident_type": "1",
	"u_reported_source": "MSI Vastara Integration"
}